tinyfarm.vcd
$version Generated by VerilatedVcd $end
$timescale 1ps $end
 $scope module tb_tinyfarm $end
  $var wire 1 C clk $end
  $var wire 1 # rst_n $end
  $var wire 2 $ mode_sel [1:0] $end
  $var wire 2 % field_sel [1:0] $end
  $var wire 2 & crop_sel [1:0] $end
  $var wire 1 ' action_btn $end
  $var wire 1 ( fulfill_btn $end
  $var wire 1 , hsync $end
  $var wire 1 - vsync $end
  $var wire 2 D vga_r [1:0] $end
  $var wire 2 E vga_g [1:0] $end
  $var wire 2 F vga_b [1:0] $end
  $var wire 8 . score_o [7:0] $end
  $var wire 12 / inventory_o [11:0] $end
  $var wire 2 G order_crop_o [1:0] $end
  $var wire 2 H order_qty_o [1:0] $end
  $var wire 4 I order_timer_o [3:0] $end
  $scope module dut $end
   $var wire 32 L CLK_HZ [31:0] $end
   $var wire 32 M GAME_TICK_HZ [31:0] $end
   $var wire 1 C clk $end
   $var wire 1 # rst_n $end
   $var wire 2 $ mode_sel [1:0] $end
   $var wire 2 % field_sel [1:0] $end
   $var wire 2 & crop_sel [1:0] $end
   $var wire 1 ' action_btn $end
   $var wire 1 ( fulfill_btn $end
   $var wire 1 , hsync $end
   $var wire 1 - vsync $end
   $var wire 2 D vga_r [1:0] $end
   $var wire 2 E vga_g [1:0] $end
   $var wire 2 F vga_b [1:0] $end
   $var wire 8 . score_o [7:0] $end
   $var wire 12 / inventory_o [11:0] $end
   $var wire 2 G order_crop_o [1:0] $end
   $var wire 2 H order_qty_o [1:0] $end
   $var wire 4 I order_timer_o [3:0] $end
   $var wire 2 N MODE_VIEW [1:0] $end
   $var wire 2 O MODE_PLANT [1:0] $end
   $var wire 2 P MODE_WATER [1:0] $end
   $var wire 2 Q MODE_HARVEST [1:0] $end
   $var wire 2 N CROP_WHEAT [1:0] $end
   $var wire 2 O CROP_CORN [1:0] $end
   $var wire 2 P CROP_CARROT [1:0] $end
   $var wire 2 Q CROP_TOMATO [1:0] $end
   $var wire 4 R ORDER_TIME_DEFAULT [3:0] $end
   $var wire 3 S INV_MAX [2:0] $end
   $var wire 8 0 fields[0] [7:0] $end
   $var wire 8 1 fields[1] [7:0] $end
   $var wire 8 2 fields[2] [7:0] $end
   $var wire 8 3 fields[3] [7:0] $end
   $var wire 3 4 inventory[0] [2:0] $end
   $var wire 3 5 inventory[1] [2:0] $end
   $var wire 3 6 inventory[2] [2:0] $end
   $var wire 3 7 inventory[3] [2:0] $end
   $var wire 2 G order_crop [1:0] $end
   $var wire 2 H order_qty [1:0] $end
   $var wire 4 I order_timer [3:0] $end
   $var wire 8 . score [7:0] $end
   $var wire 8 8 lfsr [7:0] $end
   $var wire 1 9 action_pulse $end
   $var wire 1 : fulfill_pulse $end
   $var wire 1 ; game_tick $end
   $var wire 32 < tick_div_ctr [31:0] $end
   $var wire 2 = state [1:0] $end
   $var wire 2 J next_state [1:0] $end
   $var wire 10 > hcount [9:0] $end
   $var wire 10 ? vcount [9:0] $end
   $var wire 1 @ visible $end
   $var wire 32 ) i [31:0] $end
   $var wire 32 T TICK_DIV_MAX [31:0] $end
   $scope module game_state_update $end
    $var wire 8 * new_lfsr [7:0] $end
    $var wire 2 + fcrop [1:0] $end
   $upscope $end
   $scope module u_action_pulse $end
    $var wire 1 C clk $end
    $var wire 1 # rst_n $end
    $var wire 1 ' btn_in $end
    $var wire 1 9 pulse_out $end
    $var wire 3 A sync_ff [2:0] $end
   $upscope $end
   $scope module u_fulfill_pulse $end
    $var wire 1 C clk $end
    $var wire 1 # rst_n $end
    $var wire 1 ( btn_in $end
    $var wire 1 : pulse_out $end
    $var wire 3 B sync_ff [2:0] $end
   $upscope $end
   $scope module u_vga_timing $end
    $var wire 1 C clk $end
    $var wire 1 # rst_n $end
    $var wire 10 > hcount [9:0] $end
    $var wire 10 ? vcount [9:0] $end
    $var wire 1 , hsync $end
    $var wire 1 - vsync $end
    $var wire 1 @ visible $end
    $var wire 10 U H_VISIBLE [9:0] $end
    $var wire 10 V H_FRONT [9:0] $end
    $var wire 10 W H_SYNC [9:0] $end
    $var wire 10 X H_BACK [9:0] $end
    $var wire 10 Y H_TOTAL [9:0] $end
    $var wire 10 Z V_VISIBLE [9:0] $end
    $var wire 10 [ V_FRONT [9:0] $end
    $var wire 10 \ V_SYNC [9:0] $end
    $var wire 10 ] V_BACK [9:0] $end
    $var wire 10 ^ V_TOTAL [9:0] $end
   $upscope $end
   $scope module vga_render $end
    $var wire 6 K rgb [5:0] $end
   $upscope $end
  $upscope $end
 $upscope $end
$enddefinitions $end


#0
0#
b00 $
b00 %
b00 &
0'
0(
b00000000000000000000000000000000 )
b00000000 *
b00 +
1,
1-
b00000000 .
b000000000000 /
b00000000 0
b00000000 1
b00000000 2
b00000000 3
b000 4
b000 5
b000 6
b000 7
b00000000 8
09
0:
0;
b00000000000000000000000000000000 <
b00 =
b0000000000 >
b0000000000 ?
1@
b000 A
b000 B
0C
b00 D
b10 E
b01 F
b00 G
b00 H
b0000 I
b00 J
b001001 K
b00000000000000000000000001100100 L
b00000000000000000000000000001010 M
b00 N
b01 O
b10 P
b11 Q
b1100 R
b111 S
b00000000000000000000000000001001 T
b1010000000 U
b0000010000 V
b0001100000 W
b0000110000 X
b1100100000 Y
b0111100000 Z
b0000001010 [
b0000000010 \
b0000100001 ]
b1000001101 ^
#5000
b00000000000000000000000000000100 )
b10100101 8
1C
b01 H
b1100 I
#10000
0C
#15000
1C
#20000
0C
#25000
1C
#30000
0C
#35000
1C
#40000
0C
#45000
1#
b00000000000000000000000000000001 <
b0000000001 >
1C
#50000
0C
#55000
b00000000000000000000000000000010 <
b0000000010 >
1C
#60000
0C
#65000
b00000000000000000000000000000011 <
b0000000011 >
1C
#70000
0C
#75000
b00000000000000000000000000000100 <
b0000000100 >
1C
#80000
0C
#85000
b00000000000000000000000000000101 <
b0000000101 >
1C
#90000
0C
#95000
b01 $
1'
b00000000000000000000000000000110 <
b0000000110 >
b001 A
1C
#100000
0C
#105000
19
b00000000000000000000000000000111 <
b0000000111 >
b011 A
1C
b01 J
#110000
0C
#115000
0'
09
b00000000000000000000000000001000 <
b01 =
b0000001000 >
b110 A
1C
b00 J
#120000
0C
#125000
b10000011 0
b00000000000000000000000000001001 <
b00 =
b0000001001 >
b100 A
1C
#130000
0C
#135000
1;
b00000000000000000000000000000000 <
b0000001010 >
b000 A
1C
b11 J
#140000
0C
#145000
0;
b00000000000000000000000000000001 <
b11 =
b0000001011 >
1C
b00 J
#150000
0C
#155000
b10000010 0
b00000000000000000000000000000010 <
b00 =
b0000001100 >
1C
b1011 I
#160000
0C
#165000
b00000000000000000000000000000011 <
b0000001101 >
1C
#170000
0C
#175000
b00000000000000000000000000000100 <
b0000001110 >
1C
#180000
0C
#185000
b00000000000000000000000000000101 <
b0000001111 >
1C
#190000
0C
#195000
b00000000000000000000000000000110 <
b0000010000 >
1C
#200000
0C
#205000
b00000000000000000000000000000111 <
b0000010001 >
1C
#210000
0C
#215000
b00000000000000000000000000001000 <
b0000010010 >
1C
#220000
0C
#225000
b00000000000000000000000000001001 <
b0000010011 >
1C
#230000
0C
#235000
b10 $
1'
1;
b00000000000000000000000000000000 <
b0000010100 >
b001 A
1C
b11 J
#240000
0C
#245000
19
0;
b00000000000000000000000000000001 <
b11 =
b0000010101 >
b011 A
1C
b00 J
#250000
0C
#255000
0'
b10000001 0
09
b00000000000000000000000000000010 <
b00 =
b0000010110 >
b110 A
1C
b1010 I
#260000
0C
#265000
b00000000000000000000000000000011 <
b0000010111 >
b100 A
1C
#270000
0C
#275000
b00000000000000000000000000000100 <
b0000011000 >
b000 A
1C
#280000
0C
#285000
b00000000000000000000000000000101 <
b0000011001 >
1C
#290000
0C
#295000
b00000000000000000000000000000110 <
b0000011010 >
1C
#300000
0C
#305000
b00000000000000000000000000000111 <
b0000011011 >
1C
#310000
0C
#315000
b00000000000000000000000000001000 <
b0000011100 >
1C
#320000
0C
#325000
b00000000000000000000000000001001 <
b0000011101 >
1C
#330000
0C
#335000
1;
b00000000000000000000000000000000 <
b0000011110 >
1C
b11 J
#340000
0C
#345000
0;
b00000000000000000000000000000001 <
b11 =
b0000011111 >
1C
b00 J
#350000
0C
#355000
b11000000 0
b00000000000000000000000000000010 <
b00 =
b0000100000 >
1C
b1001 I
#360000
0C
#365000
b00000000000000000000000000000011 <
b0000100001 >
1C
#370000
0C
#375000
b00000000000000000000000000000100 <
b0000100010 >
1C
#380000
0C
#385000
b00000000000000000000000000000101 <
b0000100011 >
1C
#390000
0C
#395000
b00000000000000000000000000000110 <
b0000100100 >
1C
#400000
0C
#405000
b00000000000000000000000000000111 <
b0000100101 >
1C
#410000
0C
#415000
b00000000000000000000000000001000 <
b0000100110 >
1C
#420000
0C
#425000
b00000000000000000000000000001001 <
b0000100111 >
1C
#430000
0C
#435000
1;
b00000000000000000000000000000000 <
b0000101000 >
1C
b11 J
#440000
0C
#445000
0;
b00000000000000000000000000000001 <
b11 =
b0000101001 >
1C
b00 J
#450000
0C
#455000
b00000000000000000000000000000010 <
b00 =
b0000101010 >
1C
b1000 I
#460000
0C
#465000
b00000000000000000000000000000011 <
b0000101011 >
1C
#470000
0C
#475000
b00000000000000000000000000000100 <
b0000101100 >
1C
#480000
0C
#485000
b00000000000000000000000000000101 <
b0000101101 >
1C
#490000
0C
#495000
b00000000000000000000000000000110 <
b0000101110 >
1C
#500000
0C
#505000
b00000000000000000000000000000111 <
b0000101111 >
1C
#510000
0C
#515000
b00000000000000000000000000001000 <
b0000110000 >
1C
#520000
0C
#525000
b00000000000000000000000000001001 <
b0000110001 >
1C
#530000
0C
#535000
1;
b00000000000000000000000000000000 <
b0000110010 >
1C
b11 J
#540000
0C
#545000
0;
b00000000000000000000000000000001 <
b11 =
b0000110011 >
1C
b00 J
#550000
0C
#555000
b00000000000000000000000000000010 <
b00 =
b0000110100 >
1C
b0111 I
#560000
0C
#565000
b00000000000000000000000000000011 <
b0000110101 >
1C
#570000
0C
#575000
b00000000000000000000000000000100 <
b0000110110 >
1C
#580000
0C
#585000
b00000000000000000000000000000101 <
b0000110111 >
1C
#590000
0C
#595000
b00000000000000000000000000000110 <
b0000111000 >
1C
#600000
0C
#605000
b00000000000000000000000000000111 <
b0000111001 >
1C
#610000
0C
#615000
b00000000000000000000000000001000 <
b0000111010 >
1C
#620000
0C
#625000
b00000000000000000000000000001001 <
b0000111011 >
1C
#630000
0C
#635000
1;
b00000000000000000000000000000000 <
b0000111100 >
1C
b11 J
#640000
0C
#645000
0;
b00000000000000000000000000000001 <
b11 =
b0000111101 >
1C
b00 J
#650000
0C
#655000
b00000000000000000000000000000010 <
b00 =
b0000111110 >
1C
b0110 I
#660000
0C
#665000
b00000000000000000000000000000011 <
b0000111111 >
1C
#670000
0C
#675000
b00000000000000000000000000000100 <
b0001000000 >
1C
#680000
0C
#685000
b00000000000000000000000000000101 <
b0001000001 >
1C
#690000
0C
#695000
b00000000000000000000000000000110 <
b0001000010 >
1C
#700000
0C
#705000
b00000000000000000000000000000111 <
b0001000011 >
1C
#710000
0C
#715000
b00000000000000000000000000001000 <
b0001000100 >
1C
#720000
0C
#725000
b00000000000000000000000000001001 <
b0001000101 >
1C
#730000
0C
#735000
1;
b00000000000000000000000000000000 <
b0001000110 >
1C
b11 J
#740000
0C
#745000
0;
b00000000000000000000000000000001 <
b11 =
b0001000111 >
1C
b00 J
#750000
0C
#755000
b00000000000000000000000000000010 <
b00 =
b0001001000 >
1C
b0101 I
#760000
0C
#765000
b00000000000000000000000000000011 <
b0001001001 >
1C
#770000
0C
#775000
b00000000000000000000000000000100 <
b0001001010 >
1C
#780000
0C
#785000
b00000000000000000000000000000101 <
b0001001011 >
1C
#790000
0C
#795000
b00000000000000000000000000000110 <
b0001001100 >
1C
#800000
0C
#805000
b00000000000000000000000000000111 <
b0001001101 >
1C
#810000
0C
#815000
b00000000000000000000000000001000 <
b0001001110 >
1C
#820000
0C
#825000
b00000000000000000000000000001001 <
b0001001111 >
1C
#830000
0C
#835000
1;
b00000000000000000000000000000000 <
b0001010000 >
1C
b11 J
#840000
0C
#845000
0;
b00000000000000000000000000000001 <
b11 =
b0001010001 >
1C
b00 J
#850000
0C
#855000
b00000000000000000000000000000010 <
b00 =
b0001010010 >
1C
b0100 I
#860000
0C
#865000
b00000000000000000000000000000011 <
b0001010011 >
1C
#870000
0C
#875000
b11 $
1'
b00000000000000000000000000000100 <
b0001010100 >
b001 A
1C
#880000
0C
#885000
19
b00000000000000000000000000000101 <
b0001010101 >
b011 A
1C
b01 J
#890000
0C
#895000
0'
09
b00000000000000000000000000000110 <
b01 =
b0001010110 >
b110 A
1C
b00 J
#900000
0C
#905000
b000000000001 /
b00000000 0
b001 4
b00000000000000000000000000000111 <
b00 =
b0001010111 >
b100 A
1C
#910000
0C
#915000
b00000000000000000000000000001000 <
b0001011000 >
b000 A
1C
b1000 I
#920000
0C
#925000
b00000000000000000000000000001001 <
b0001011001 >
1C
#930000
0C
#935000
1;
b00000000000000000000000000000000 <
b0001011010 >
1C
b11 J
#940000
0C
#945000
1(
0;
b00000000000000000000000000000001 <
b11 =
b0001011011 >
b001 B
1C
b00 J
#950000
0C
#955000
1:
b00000000000000000000000000000010 <
b00 =
b0001011100 >
b011 B
1C
b0111 I
b10 J
#960000
0C
#965000
0(
0:
b00000000000000000000000000000011 <
b10 =
b0001011101 >
b110 B
1C
b00 J
#970000
0C
#975000
b01001010 *
b00000001 .
b000000000000 /
b000 4
b01001010 8
b00000000000000000000000000000100 <
b00 =
b0001011110 >
b100 B
1C
b10 G
b11 H
b1100 I
#980000
0C
#985000
b00000000000000000000000000000101 <
b0001011111 >
b000 B
1C
#990000
0C
#995000
b00000000000000000000000000000110 <
b0001100000 >
1C
#1000000
0C
#1005000
b00000000000000000000000000000111 <
b0001100001 >
1C
#1010000
0C
#1015000
b00000000000000000000000000001000 <
b0001100010 >
1C
#1020000
0C
#1025000
b00000000000000000000000000001001 <
b0001100011 >
1C
#1030000
0C
#1035000
1;
b00000000000000000000000000000000 <
b0001100100 >
1C
b11 J
#1040000
0C
#1045000
0;
b00000000000000000000000000000001 <
b11 =
b0001100101 >
1C
b00 J
#1050000
0C
#1055000
b00000000000000000000000000000010 <
b00 =
b0001100110 >
1C
b1011 I
#1060000
0C
#1065000
b00000000000000000000000000000011 <
b0001100111 >
1C
#1070000
0C
#1075000
b00000000000000000000000000000100 <
b0001101000 >
1C
#1080000
0C
#1085000
b00000000000000000000000000000101 <
b0001101001 >
1C
#1090000
0C
#1095000
b00000000000000000000000000000110 <
b0001101010 >
1C
#1100000
0C
#1105000
b00000000000000000000000000000111 <
b0001101011 >
1C
#1110000
0C
#1115000
b00000000000000000000000000001000 <
b0001101100 >
1C
#1120000
0C
#1125000
b00000000000000000000000000001001 <
b0001101101 >
1C
#1130000
0C
#1135000
1;
b00000000000000000000000000000000 <
b0001101110 >
1C
b11 J
#1140000
0C
#1145000
0;
b00000000000000000000000000000001 <
b11 =
b0001101111 >
1C
b00 J
#1150000
0C
#1155000
b00000000000000000000000000000010 <
b00 =
b0001110000 >
1C
b1010 I
#1160000
0C
#1165000
b00000000000000000000000000000011 <
b0001110001 >
1C
#1170000
0C
#1175000
b00000000000000000000000000000100 <
b0001110010 >
1C
#1180000
0C
#1185000
b00000000000000000000000000000101 <
b0001110011 >
1C
